…
Solution: Reshape your data. For simple reshaping, gather() and spread()
from tidyr will suffice. Do the thing that is possible / easier now that
your data has a new
shape.

#### Activity 2 : Make a tibble with one row per year and columns for life expectancy for two or more countries. Take advantage of this new data shape to scatterplot life expectancy for one country against that of another.

First take a brief look at the data, let’s choose the country with the
highest lifeExp in each continent.

``` r
gapminder
```

    ## # A tibble: 1,704 x 6
    ##    country     continent  year lifeExp      pop gdpPercap
    ##    <fct>       <fct>     <int>   <dbl>    <int>     <dbl>
    ##  1 Afghanistan Asia       1952    28.8  8425333      779.
    ##  2 Afghanistan Asia       1957    30.3  9240934      821.
    ##  3 Afghanistan Asia       1962    32.0 10267083      853.
    ##  4 Afghanistan Asia       1967    34.0 11537966      836.
    ##  5 Afghanistan Asia       1972    36.1 13079460      740.
    ##  6 Afghanistan Asia       1977    38.4 14880372      786.
    ##  7 Afghanistan Asia       1982    39.9 12881816      978.
    ##  8 Afghanistan Asia       1987    40.8 13867957      852.
    ##  9 Afghanistan Asia       1992    41.7 16317921      649.
    ## 10 Afghanistan Asia       1997    41.8 22227415      635.
    ## # ... with 1,694 more rows
…
So the chosen countries are : Reunion, Japan, Canada, Iceland,
Australia. Then let’s make the tibble. First, filter the data we want to
use:

``` r
(lifeExp_data <- gapminder %>% 
  filter(country == "Reunion" | country == "Japan" | country == "Canada" | country == "Iceland" | country == "Australia") %>% 
   select(-pop, -gdpPercap, -continent))
```

    ## # A tibble: 60 x 3
    ##    country    year lifeExp
    ##    <fct>     <int>   <dbl>
    ##  1 Australia  1952    69.1
    ##  2 Australia  1957    70.3
    ##  3 Australia  1962    70.9
    ##  4 Australia  1967    71.1
    ##  5 Australia  1972    71.9
    ##  6 Australia  1977    73.5
    ##  7 Australia  1982    74.7
    ##  8 Australia  1987    76.3
    ##  9 Australia  1992    77.6
    ## 10 Australia  1997    78.8
    ## # ... with 50 more rows
…
</tbody>

</table>

First, let’s try left join new\_data into
    gapminder

``` r
(leftJoin <- left_join(gapminder, new_data, by = "continent"))
```

    ## Warning: Column `continent` joining factor and character vector, coercing
    ## into character vector

    ## # A tibble: 1,704 x 10
    ##    country continent  year lifeExp    pop gdpPercap largestCountry
    ##    <fct>   <chr>     <int>   <dbl>  <int>     <dbl> <chr>         
    ##  1 Afghan… Asia       1952    28.8 8.43e6      779. China         
    ##  2 Afghan… Asia       1957    30.3 9.24e6      821. China         
    ##  3 Afghan… Asia       1962    32.0 1.03e7      853. China         
    ##  4 Afghan… Asia       1967    34.0 1.15e7      836. China         
    ##  5 Afghan… Asia       1972    36.1 1.31e7      740. China         
    ##  6 Afghan… Asia       1977    38.4 1.49e7      786. China         
    ##  7 Afghan… Asia       1982    39.9 1.29e7      978. China         
    ##  8 Afghan… Asia       1987    40.8 1.39e7      852. China         
    ##  9 Afghan… Asia       1992    41.7 1.63e7      649. China         
    ## 10 Afghan… Asia       1997    41.8 2.22e7      635. China         
    ## # ... with 1,694 more rows, and 3 more variables: areaOfCountrySqkm <chr>,
    ## #   capital <chr>, timeZone <chr>

let’s see what happend to Oceania in leftJoin:

``` r
leftJoin %>% 
  filter(continent == "Oceania")
```

    ## # A tibble: 24 x 10
    ##    country continent  year lifeExp    pop gdpPercap largestCountry
    ##    <fct>   <chr>     <int>   <dbl>  <int>     <dbl> <chr>         
    ##  1 Austra… Oceania    1952    69.1 8.69e6    10040. <NA>          
    ##  2 Austra… Oceania    1957    70.3 9.71e6    10950. <NA>          
    ##  3 Austra… Oceania    1962    70.9 1.08e7    12217. <NA>          
    ##  4 Austra… Oceania    1967    71.1 1.19e7    14526. <NA>          
    ##  5 Austra… Oceania    1972    71.9 1.32e7    16789. <NA>          
    ##  6 Austra… Oceania    1977    73.5 1.41e7    18334. <NA>          
    ##  7 Austra… Oceania    1982    74.7 1.52e7    19477. <NA>          
    ##  8 Austra… Oceania    1987    76.3 1.63e7    21889. <NA>          
    ##  9 Austra… Oceania    1992    77.6 1.75e7    23425. <NA>          
    ## 10 Austra… Oceania    1997    78.8 1.86e7    26998. <NA>          
    ## # ... with 14 more rows, and 3 more variables: areaOfCountrySqkm <chr>,
    ## #   capital <chr>, timeZone <chr>
…
Then let’s try right join new\_data into
    gapminder

``` r
(rightJoin <- right_join(gapminder, new_data, by = "continent"))
```

    ## Warning: Column `continent` joining factor and character vector, coercing
    ## into character vector

    ## # A tibble: 1,680 x 10
    ##    country continent  year lifeExp    pop gdpPercap largestCountry
    ##    <fct>   <chr>     <int>   <dbl>  <int>     <dbl> <chr>         
    ##  1 Algeria Africa     1952    43.1 9.28e6     2449. Algeria       
    ##  2 Algeria Africa     1957    45.7 1.03e7     3014. Algeria       
    ##  3 Algeria Africa     1962    48.3 1.10e7     2551. Algeria       
    ##  4 Algeria Africa     1967    51.4 1.28e7     3247. Algeria       
    ##  5 Algeria Africa     1972    54.5 1.48e7     4183. Algeria       
    ##  6 Algeria Africa     1977    58.0 1.72e7     4910. Algeria       
    ##  7 Algeria Africa     1982    61.4 2.00e7     5745. Algeria       
    ##  8 Algeria Africa     1987    65.8 2.33e7     5681. Algeria       
    ##  9 Algeria Africa     1992    67.7 2.63e7     5023. Algeria       
    ## 10 Algeria Africa     1997    69.2 2.91e7     4797. Algeria       
    ## # ... with 1,670 more rows, and 3 more variables: areaOfCountrySqkm <chr>,
    ## #   capital <chr>, timeZone <chr>
…
Next, let’s try inner
    join:

``` r
(innerJoin <- inner_join(gapminder, new_data, by = "continent"))
```

    ## Warning: Column `continent` joining factor and character vector, coercing
    ## into character vector

    ## # A tibble: 1,680 x 10
    ##    country continent  year lifeExp    pop gdpPercap largestCountry
    ##    <fct>   <chr>     <int>   <dbl>  <int>     <dbl> <chr>         
    ##  1 Afghan… Asia       1952    28.8 8.43e6      779. China         
    ##  2 Afghan… Asia       1957    30.3 9.24e6      821. China         
    ##  3 Afghan… Asia       1962    32.0 1.03e7      853. China         
    ##  4 Afghan… Asia       1967    34.0 1.15e7      836. China         
    ##  5 Afghan… Asia       1972    36.1 1.31e7      740. China         
    ##  6 Afghan… Asia       1977    38.4 1.49e7      786. China         
    ##  7 Afghan… Asia       1982    39.9 1.29e7      978. China         
    ##  8 Afghan… Asia       1987    40.8 1.39e7      852. China         
    ##  9 Afghan… Asia       1992    41.7 1.63e7      649. China         
    ## 10 Afghan… Asia       1997    41.8 2.22e7      635. China         
    ## # ... with 1,670 more rows, and 3 more variables: areaOfCountrySqkm <chr>,
    ## #   capital <chr>, timeZone <chr>
…
We can see by inner\_join, two dataframe are combined together by
matching continent. Since ther are no Oceania in new\_data, so the total
rows of the innerJoin data frame gets smaller than gapminder.

Next, try
    full\_join:

``` r
(fullJoin <- full_join(gapminder, new_data, by = "continent"))
```

    ## Warning: Column `continent` joining factor and character vector, coercing
    ## into character vector

    ## # A tibble: 1,704 x 10
    ##    country continent  year lifeExp    pop gdpPercap largestCountry
    ##    <fct>   <chr>     <int>   <dbl>  <int>     <dbl> <chr>         
    ##  1 Afghan… Asia       1952    28.8 8.43e6      779. China         
    ##  2 Afghan… Asia       1957    30.3 9.24e6      821. China         
    ##  3 Afghan… Asia       1962    32.0 1.03e7      853. China         
    ##  4 Afghan… Asia       1967    34.0 1.15e7      836. China         
    ##  5 Afghan… Asia       1972    36.1 1.31e7      740. China         
    ##  6 Afghan… Asia       1977    38.4 1.49e7      786. China         
    ##  7 Afghan… Asia       1982    39.9 1.29e7      978. China         
    ##  8 Afghan… Asia       1987    40.8 1.39e7      852. China         
    ##  9 Afghan… Asia       1992    41.7 1.63e7      649. China         
    ## 10 Afghan… Asia       1997    41.8 2.22e7      635. China         
    ## # ... with 1,694 more rows, and 3 more variables: areaOfCountrySqkm <chr>,
    ## #   capital <chr>, timeZone <chr>

Let’s see what happened to Oceania rows:

``` r
fullJoin %>% 
  filter(continent == "Oceania")
```

    ## # A tibble: 24 x 10
    ##    country continent  year lifeExp    pop gdpPercap largestCountry
    ##    <fct>   <chr>     <int>   <dbl>  <int>     <dbl> <chr>         
    ##  1 Austra… Oceania    1952    69.1 8.69e6    10040. <NA>          
    ##  2 Austra… Oceania    1957    70.3 9.71e6    10950. <NA>          
    ##  3 Austra… Oceania    1962    70.9 1.08e7    12217. <NA>          
    ##  4 Austra… Oceania    1967    71.1 1.19e7    14526. <NA>          
    ##  5 Austra… Oceania    1972    71.9 1.32e7    16789. <NA>          
    ##  6 Austra… Oceania    1977    73.5 1.41e7    18334. <NA>          
    ##  7 Austra… Oceania    1982    74.7 1.52e7    19477. <NA>          
    ##  8 Austra… Oceania    1987    76.3 1.63e7    21889. <NA>          
    ##  9 Austra… Oceania    1992    77.6 1.75e7    23425. <NA>          
    ## 10 Austra… Oceania    1997    78.8 1.86e7    26998. <NA>          
    ## # ... with 14 more rows, and 3 more variables: areaOfCountrySqkm <chr>,
    ## #   capital <chr>, timeZone <chr>
We can see that, by full\_join, all rows in gapminder and new\_data are
combined together, so the rows of fullJoin data frame is the same as the
gapminder.

Now, try
    semi\_join:

``` r
(semiJoin <- semi_join(gapminder, new_data, by = "continent")) 
```

    ## Warning: Column `continent` joining factor and character vector, coercing
    ## into character vector

    ## # A tibble: 1,680 x 6
    ##    country     continent  year lifeExp      pop gdpPercap
    ##    <fct>       <fct>     <int>   <dbl>    <int>     <dbl>
    ##  1 Afghanistan Asia       1952    28.8  8425333      779.
    ##  2 Afghanistan Asia       1957    30.3  9240934      821.
    ##  3 Afghanistan Asia       1962    32.0 10267083      853.
    ##  4 Afghanistan Asia       1967    34.0 11537966      836.
    ##  5 Afghanistan Asia       1972    36.1 13079460      740.
    ##  6 Afghanistan Asia       1977    38.4 14880372      786.
    ##  7 Afghanistan Asia       1982    39.9 12881816      978.
    ##  8 Afghanistan Asia       1987    40.8 13867957      852.
    ##  9 Afghanistan Asia       1992    41.7 16317921      649.
    ## 10 Afghanistan Asia       1997    41.8 22227415      635.
    ## # ... with 1,670 more rows
…
We can see all the rows have matching rows in gapminder, so the number
of rows didn’t change.

Now try
    anti\_join:

``` r
(ant <- anti_join(gapminder, new_data, by = "continent")) 
```

    ## Warning: Column `continent` joining factor and character vector, coercing
    ## into character vector

    ## # A tibble: 24 x 6
    ##    country   continent  year lifeExp      pop gdpPercap
    ##    <fct>     <fct>     <int>   <dbl>    <int>     <dbl>
    ##  1 Australia Oceania    1952    69.1  8691212    10040.
    ##  2 Australia Oceania    1957    70.3  9712569    10950.
    ##  3 Australia Oceania    1962    70.9 10794968    12217.
    ##  4 Australia Oceania    1967    71.1 11872264    14526.
    ##  5 Australia Oceania    1972    71.9 13177000    16789.
    ##  6 Australia Oceania    1977    73.5 14074100    18334.
    ##  7 Australia Oceania    1982    74.7 15184200    19477.
    ##  8 Australia Oceania    1987    76.3 16257249    21889.
    ##  9 Australia Oceania    1992    77.6 17481977    23425.
    ## 10 Australia Oceania    1997    78.8 18565243    26998.
    ## # ... with 14 more rows
…
